\relax 
\catcode`"\active
\select@language{russian}
\@writefile{toc}{\select@language{russian}}
\@writefile{lof}{\select@language{russian}}
\@writefile{lot}{\select@language{russian}}
\@writefile{toc}{\contentsline {section}{\numberline {1.\relax }Signed distance fields (SDF)}{1}}
\@writefile{toc}{\contentsline {subsection}{\numberline {1.1.\relax }\IeC {\CYRV }\IeC {\cyrv }\IeC {\cyre }\IeC {\cyrd }\IeC {\cyre }\IeC {\cyrn }\IeC {\cyri }\IeC {\cyre }}{1}}
\@writefile{toc}{\contentsline {subsection}{\numberline {1.2.\relax }\IeC {\CYRO }\IeC {\cyrp }\IeC {\cyrr }\IeC {\cyre }\IeC {\cyrd }\IeC {\cyre }\IeC {\cyrl }\IeC {\cyre }\IeC {\cyrn }\IeC {\cyri }\IeC {\cyrya }}{1}}
\@writefile{toc}{\contentsline {subsection}{\numberline {1.3.\relax }\IeC {\CYRP }\IeC {\cyrr }\IeC {\cyri }\IeC {\cyrm }\IeC {\cyre }\IeC {\cyrr }\IeC {\cyrery }}{1}}
\@writefile{toc}{\contentsline {subsubsection}{\numberline {1.3.1.\relax }sdSphere}{1}}
\@writefile{loa}{\contentsline {algorithm}{\numberline {1}{\ignorespaces SDF \IeC {\cyrd }\IeC {\cyrl }\IeC {\cyrya } \IeC {\cyrs }\IeC {\cyrf }\IeC {\cyre }\IeC {\cyrr }\IeC {\cyrery }}}{1}}
\newlabel{sdSphere}{{1}{1}}
\@writefile{lof}{\contentsline {figure}{\numberline {1.}{\ignorespaces \IeC {\CYRI }\IeC {\cyrl }\IeC {\cyrl }\IeC {\cyryu }\IeC {\cyrs }\IeC {\cyrt }\IeC {\cyrr }\IeC {\cyra }\IeC {\cyrc }\IeC {\cyri }\IeC {\cyrya } \IeC {\cyrk } \IeC {\cyrp }\IeC {\cyrr }\IeC {\cyro }\IeC {\cyrc }\IeC {\cyre }\IeC {\cyrd }\IeC {\cyru }\IeC {\cyrr }\IeC {\cyre } sdSphere}}{1}}
\newlabel{fig:box}{{1}{1}}
\@writefile{toc}{\contentsline {subsubsection}{\numberline {1.3.2.\relax }sdBox}{1}}
\@writefile{loa}{\contentsline {algorithm}{\numberline {2}{\ignorespaces SDF \IeC {\cyrd }\IeC {\cyrl }\IeC {\cyrya } box'\IeC {\cyra }}}{1}}
\newlabel{sdBox}{{2}{1}}
\@writefile{lof}{\contentsline {figure}{\numberline {2.}{\ignorespaces \IeC {\CYRI }\IeC {\cyrl }\IeC {\cyrl }\IeC {\cyryu }\IeC {\cyrs }\IeC {\cyrt }\IeC {\cyrr }\IeC {\cyra }\IeC {\cyrc }\IeC {\cyri }\IeC {\cyrya } \IeC {\cyrk } \IeC {\cyrp }\IeC {\cyrr }\IeC {\cyro }\IeC {\cyrc }\IeC {\cyre }\IeC {\cyrd }\IeC {\cyru }\IeC {\cyrr }\IeC {\cyre } sdBox}}{1}}
\newlabel{fig:box}{{2}{1}}
\@writefile{toc}{\contentsline {subsection}{\numberline {1.4.\relax }\IeC {\CYRO }\IeC {\cyrp }\IeC {\cyre }\IeC {\cyrr }\IeC {\cyra }\IeC {\cyrc }\IeC {\cyri }\IeC {\cyri } \IeC {\cyrs } SDF}{2}}
\@writefile{toc}{\contentsline {subsubsection}{\numberline {1.4.1.\relax }\IeC {\CYRO }\IeC {\cyrb }\IeC {\cyrhrdsn }\IeC {\cyre }\IeC {\cyrd }\IeC {\cyri }\IeC {\cyrn }\IeC {\cyre }\IeC {\cyrn }\IeC {\cyri }\IeC {\cyre }}{2}}
\@writefile{loa}{\contentsline {algorithm}{\numberline {3}{\ignorespaces \IeC {\CYRP }\IeC {\cyrr }\IeC {\cyro }\IeC {\cyrc }\IeC {\cyre }\IeC {\cyrd }\IeC {\cyru }\IeC {\cyrr }\IeC {\cyra } \IeC {\cyro }\IeC {\cyrb }\IeC {\cyrhrdsn }\IeC {\cyre }\IeC {\cyrd }\IeC {\cyri }\IeC {\cyrn }\IeC {\cyre }\IeC {\cyrn }\IeC {\cyri }\IeC {\cyrya } \IeC {\cyrd }\IeC {\cyrv }\IeC {\cyru }\IeC {\cyrh } SDF}}{2}}
\newlabel{opU}{{3}{2}}
\@writefile{lof}{\contentsline {figure}{\numberline {3.}{\ignorespaces \IeC {\CYRI }\IeC {\cyrl }\IeC {\cyrl }\IeC {\cyryu }\IeC {\cyrs }\IeC {\cyrt }\IeC {\cyrr }\IeC {\cyra }\IeC {\cyrc }\IeC {\cyri }\IeC {\cyrya } \IeC {\cyrk } \IeC {\cyrp }\IeC {\cyrr }\IeC {\cyro }\IeC {\cyrc }\IeC {\cyre }\IeC {\cyrd }\IeC {\cyru }\IeC {\cyrr }\IeC {\cyre } opU}}{2}}
\newlabel{fig:opU}{{3}{2}}
\@writefile{toc}{\contentsline {subsubsection}{\numberline {1.4.2.\relax }\IeC {\CYRP }\IeC {\cyre }\IeC {\cyrr }\IeC {\cyre }\IeC {\cyrs }\IeC {\cyre }\IeC {\cyrch }\IeC {\cyre }\IeC {\cyrn }\IeC {\cyri }\IeC {\cyre }}{2}}
\@writefile{loa}{\contentsline {algorithm}{\numberline {4}{\ignorespaces \IeC {\CYRP }\IeC {\cyrr }\IeC {\cyro }\IeC {\cyrc }\IeC {\cyre }\IeC {\cyrd }\IeC {\cyru }\IeC {\cyrr }\IeC {\cyra } \IeC {\cyrp }\IeC {\cyre }\IeC {\cyrr }\IeC {\cyre }\IeC {\cyrs }\IeC {\cyre }\IeC {\cyrch }\IeC {\cyre }\IeC {\cyrn }\IeC {\cyri }\IeC {\cyrya } \IeC {\cyrd }\IeC {\cyrv }\IeC {\cyru }\IeC {\cyrh } SDF}}{2}}
\newlabel{opI}{{4}{2}}
\@writefile{lof}{\contentsline {figure}{\numberline {4.}{\ignorespaces \IeC {\CYRI }\IeC {\cyrl }\IeC {\cyrl }\IeC {\cyryu }\IeC {\cyrs }\IeC {\cyrt }\IeC {\cyrr }\IeC {\cyra }\IeC {\cyrc }\IeC {\cyri }\IeC {\cyrya } \IeC {\cyrk } \IeC {\cyrp }\IeC {\cyrr }\IeC {\cyro }\IeC {\cyrc }\IeC {\cyre }\IeC {\cyrd }\IeC {\cyru }\IeC {\cyrr }\IeC {\cyre } opI}}{2}}
\newlabel{fig:opI}{{4}{2}}
\@writefile{toc}{\contentsline {subsubsection}{\numberline {1.4.3.\relax }\IeC {\CYRR }\IeC {\cyra }\IeC {\cyrz }\IeC {\cyrn }\IeC {\cyro }\IeC {\cyrs }\IeC {\cyrt }\IeC {\cyrsftsn }}{2}}
\@writefile{loa}{\contentsline {algorithm}{\numberline {5}{\ignorespaces \IeC {\CYRP }\IeC {\cyrr }\IeC {\cyro }\IeC {\cyrc }\IeC {\cyre }\IeC {\cyrd }\IeC {\cyru }\IeC {\cyrr }\IeC {\cyra } \IeC {\cyrn }\IeC {\cyra }\IeC {\cyrh }\IeC {\cyro }\IeC {\cyrzh }\IeC {\cyrd }\IeC {\cyre }\IeC {\cyrn }\IeC {\cyri }\IeC {\cyrya } \IeC {\cyrr }\IeC {\cyra }\IeC {\cyrz }\IeC {\cyrn }\IeC {\cyro }\IeC {\cyrs }\IeC {\cyrt }\IeC {\cyri } \IeC {\cyrd }\IeC {\cyrv }\IeC {\cyru }\IeC {\cyrh } SDF}}{2}}
\newlabel{opS}{{5}{2}}
\@writefile{lof}{\contentsline {figure}{\numberline {5.}{\ignorespaces \IeC {\CYRI }\IeC {\cyrl }\IeC {\cyrl }\IeC {\cyryu }\IeC {\cyrs }\IeC {\cyrt }\IeC {\cyrr }\IeC {\cyra }\IeC {\cyrc }\IeC {\cyri }\IeC {\cyrya } \IeC {\cyrk } \IeC {\cyrp }\IeC {\cyrr }\IeC {\cyro }\IeC {\cyrc }\IeC {\cyre }\IeC {\cyrd }\IeC {\cyru }\IeC {\cyrr }\IeC {\cyre } opS}}{3}}
\newlabel{fig:opS}{{5}{3}}
\@writefile{toc}{\contentsline {subsubsection}{\numberline {1.4.4.\relax }\IeC {\CYRP }\IeC {\cyra }\IeC {\cyrr }\IeC {\cyra }\IeC {\cyrl }\IeC {\cyrl }\IeC {\cyre }\IeC {\cyrl }\IeC {\cyrsftsn }\IeC {\cyrn }\IeC {\cyrery }\IeC {\cyrishrt } \IeC {\cyrp }\IeC {\cyre }\IeC {\cyrr }\IeC {\cyre }\IeC {\cyrn }\IeC {\cyro }\IeC {\cyrs } \IeC {\cyri } \IeC {\cyrp }\IeC {\cyro }\IeC {\cyrv }\IeC {\cyro }\IeC {\cyrr }\IeC {\cyro }\IeC {\cyrt }}{3}}
\@writefile{loa}{\contentsline {algorithm}{\numberline {6}{\ignorespaces \IeC {\CYRP }\IeC {\cyrr }\IeC {\cyro }\IeC {\cyrc }\IeC {\cyre }\IeC {\cyrd }\IeC {\cyru }\IeC {\cyrr }\IeC {\cyra } \IeC {\cyrd }\IeC {\cyrl }\IeC {\cyrya } \IeC {\cyrv }\IeC {\cyrery }\IeC {\cyrp }\IeC {\cyro }\IeC {\cyrl }\IeC {\cyrn }\IeC {\cyre }\IeC {\cyrn }\IeC {\cyri }\IeC {\cyrya } \IeC {\cyrp }\IeC {\cyra }\IeC {\cyrr }\IeC {\cyra }\IeC {\cyrl }\IeC {\cyrl }\IeC {\cyre }\IeC {\cyrl }\IeC {\cyrsftsn }\IeC {\cyrn }\IeC {\cyro }\IeC {\cyrg }\IeC {\cyro } \IeC {\cyrp }\IeC {\cyre }\IeC {\cyrr }\IeC {\cyre }\IeC {\cyrn }\IeC {\cyro }\IeC {\cyrs }\IeC {\cyra } \IeC {\cyri } \IeC {\cyrp }\IeC {\cyro }\IeC {\cyrv }\IeC {\cyro }\IeC {\cyrr }\IeC {\cyro }\IeC {\cyrt }\IeC {\cyra } \IeC {\cyrv } \IeC {\cyrp }\IeC {\cyrr }\IeC {\cyro }\IeC {\cyrs }\IeC {\cyrt }\IeC {\cyrr }\IeC {\cyra }\IeC {\cyrn }\IeC {\cyrs }\IeC {\cyrt }\IeC {\cyrv }\IeC {\cyre }}}{3}}
\newlabel{opTransform}{{6}{3}}
\@writefile{lof}{\contentsline {figure}{\numberline {6.}{\ignorespaces \IeC {\CYRI }\IeC {\cyrl }\IeC {\cyrl }\IeC {\cyryu }\IeC {\cyrs }\IeC {\cyrt }\IeC {\cyrr }\IeC {\cyra }\IeC {\cyrc }\IeC {\cyri }\IeC {\cyrya } \IeC {\cyrk } \IeC {\cyrp }\IeC {\cyrr }\IeC {\cyro }\IeC {\cyrc }\IeC {\cyre }\IeC {\cyrd }\IeC {\cyru }\IeC {\cyrr }\IeC {\cyre } opTransform}}{3}}
\newlabel{fig:opTransform}{{6}{3}}
\@writefile{toc}{\contentsline {subsubsection}{\numberline {1.4.5.\relax }\IeC {\CYRM }\IeC {\cyra }\IeC {\cyrs }\IeC {\cyrsh }\IeC {\cyrt }\IeC {\cyra }\IeC {\cyrb }\IeC {\cyri }\IeC {\cyrr }\IeC {\cyro }\IeC {\cyrv }\IeC {\cyra }\IeC {\cyrn }\IeC {\cyri }\IeC {\cyre }}{3}}
\@writefile{loa}{\contentsline {algorithm}{\numberline {7}{\ignorespaces \IeC {\CYRP }\IeC {\cyrr }\IeC {\cyro }\IeC {\cyrc }\IeC {\cyre }\IeC {\cyrd }\IeC {\cyru }\IeC {\cyrr }\IeC {\cyra } \IeC {\cyrd }\IeC {\cyrl }\IeC {\cyrya } \IeC {\cyrv }\IeC {\cyrery }\IeC {\cyrp }\IeC {\cyro }\IeC {\cyrl }\IeC {\cyrn }\IeC {\cyre }\IeC {\cyrn }\IeC {\cyri }\IeC {\cyrya } \IeC {\cyrm }\IeC {\cyra }\IeC {\cyrs }\IeC {\cyrsh }\IeC {\cyrt }\IeC {\cyra }\IeC {\cyrb }\IeC {\cyri }\IeC {\cyrr }\IeC {\cyro }\IeC {\cyrv }\IeC {\cyra }\IeC {\cyrn }\IeC {\cyri }\IeC {\cyrya }}}{3}}
\newlabel{opScale}{{7}{3}}
\@writefile{lof}{\contentsline {figure}{\numberline {7.}{\ignorespaces \IeC {\CYRI }\IeC {\cyrl }\IeC {\cyrl }\IeC {\cyryu }\IeC {\cyrs }\IeC {\cyrt }\IeC {\cyrr }\IeC {\cyra }\IeC {\cyrc }\IeC {\cyri }\IeC {\cyrya } \IeC {\cyrk } \IeC {\cyrp }\IeC {\cyrr }\IeC {\cyro }\IeC {\cyrc }\IeC {\cyre }\IeC {\cyrd }\IeC {\cyru }\IeC {\cyrr }\IeC {\cyre } opScale}}{3}}
\newlabel{fig:opScale}{{7}{3}}
\@writefile{toc}{\contentsline {section}{\numberline {2.\relax }\IeC {\CYRV }\IeC {\cyri }\IeC {\cyrz }\IeC {\cyru }\IeC {\cyra }\IeC {\cyrl }\IeC {\cyri }\IeC {\cyrz }\IeC {\cyra }\IeC {\cyrc }\IeC {\cyri }\IeC {\cyrya } SDF}{4}}
\@writefile{toc}{\contentsline {subsection}{\numberline {2.1.\relax }\IeC {\CYRV }\IeC {\cyrv }\IeC {\cyre }\IeC {\cyrd }\IeC {\cyre }\IeC {\cyrn }\IeC {\cyri }\IeC {\cyre }}{4}}
\@writefile{toc}{\contentsline {subsection}{\numberline {2.2.\relax }\IeC {\CYRP }\IeC {\cyro }\IeC {\cyri }\IeC {\cyrs }\IeC {\cyrk } \IeC {\cyrp }\IeC {\cyre }\IeC {\cyrr }\IeC {\cyre }\IeC {\cyrs }\IeC {\cyre }\IeC {\cyrch }\IeC {\cyre }\IeC {\cyrn }\IeC {\cyri }\IeC {\cyrya } \IeC {\cyrs } SDF}{4}}
\@writefile{toc}{\contentsline {subsubsection}{\numberline {2.2.1.\relax }Raymarching}{4}}
\@writefile{loa}{\contentsline {algorithm}{\numberline {8}{\ignorespaces Raymarching}}{4}}
\newlabel{Raymarching}{{8}{4}}
\@writefile{lof}{\contentsline {figure}{\numberline {8.}{\ignorespaces \IeC {\CYRI }\IeC {\cyrl }\IeC {\cyrl }\IeC {\cyryu }\IeC {\cyrs }\IeC {\cyrt }\IeC {\cyrr }\IeC {\cyra }\IeC {\cyrc }\IeC {\cyri }\IeC {\cyrya } \IeC {\cyrk } \IeC {\cyrp }\IeC {\cyrr }\IeC {\cyro }\IeC {\cyrc }\IeC {\cyre }\IeC {\cyrd }\IeC {\cyru }\IeC {\cyrr }\IeC {\cyre } RayMarching}}{5}}
\newlabel{fig:RayMarching}{{8}{5}}
\@writefile{lof}{\contentsline {figure}{\numberline {9.}{\ignorespaces \IeC {\CYRP }\IeC {\cyrr }\IeC {\cyro }\IeC {\cyrp }\IeC {\cyru }\IeC {\cyrs }\IeC {\cyrk } \IeC {\cyrp }\IeC {\cyre }\IeC {\cyrr }\IeC {\cyre }\IeC {\cyrs }\IeC {\cyre }\IeC {\cyrch }\IeC {\cyre }\IeC {\cyrn }\IeC {\cyri }\IeC {\cyrya } \IeC {\cyrp }\IeC {\cyrr }\IeC {\cyro }\IeC {\cyrc }\IeC {\cyre }\IeC {\cyrd }\IeC {\cyru }\IeC {\cyrr }\IeC {\cyro }\IeC {\cyrishrt } RayMarching}}{5}}
\newlabel{fig:RayMarchingBad}{{9}{5}}
\@writefile{toc}{\contentsline {subsubsection}{\numberline {2.2.2.\relax }Sphere tracing}{5}}
\@writefile{loa}{\contentsline {algorithm}{\numberline {9}{\ignorespaces SphereTracing}}{6}}
\newlabel{SphereTracing}{{9}{6}}
\@writefile{lof}{\contentsline {figure}{\numberline {10.}{\ignorespaces \IeC {\CYRI }\IeC {\cyrl }\IeC {\cyrl }\IeC {\cyryu }\IeC {\cyrs }\IeC {\cyrt }\IeC {\cyrr }\IeC {\cyra }\IeC {\cyrc }\IeC {\cyri }\IeC {\cyrya } \IeC {\cyrk } \IeC {\cyrp }\IeC {\cyrr }\IeC {\cyro }\IeC {\cyrc }\IeC {\cyre }\IeC {\cyrd }\IeC {\cyru }\IeC {\cyrr }\IeC {\cyre } SphereTracing}}{6}}
\newlabel{fig:SphereTracing}{{10}{6}}
\@writefile{toc}{\contentsline {subsection}{\numberline {2.3.\relax }\IeC {\CYRP }\IeC {\cyro }\IeC {\cyrl }\IeC {\cyri }\IeC {\cyrg }\IeC {\cyro }\IeC {\cyrn }\IeC {\cyri }\IeC {\cyrz }\IeC {\cyra }\IeC {\cyrc }\IeC {\cyri }\IeC {\cyrya } SDF}{6}}
\@writefile{lof}{\contentsline {figure}{\numberline {11.}{\ignorespaces \IeC {\CYRV }\IeC {\cyri }\IeC {\cyrz }\IeC {\cyru }\IeC {\cyra }\IeC {\cyrl }\IeC {\cyri }\IeC {\cyrz }\IeC {\cyra }\IeC {\cyrc }\IeC {\cyri }\IeC {\cyrya } \IeC {\CYRM }\IeC {\CYRR }\IeC {\CYRT }-\IeC {\cyrs }\IeC {\cyrn }\IeC {\cyri }\IeC {\cyrm }\IeC {\cyrk }\IeC {\cyro }\IeC {\cyrv }}}{7}}
\newlabel{fig:Mcubes1}{{11}{7}}
\@writefile{lof}{\contentsline {figure}{\numberline {12.}{\ignorespaces \IeC {\CYRI }\IeC {\cyrs }\IeC {\cyrp }\IeC {\cyro }\IeC {\cyrl }\IeC {\cyrsftsn }\IeC {\cyrz }\IeC {\cyro }\IeC {\cyrv }\IeC {\cyra }\IeC {\cyrn }\IeC {\cyri }\IeC {\cyre } \IeC {\cyrv }\IeC {\cyro }\IeC {\cyrk }\IeC {\cyrs }\IeC {\cyre }\IeC {\cyrl }\IeC {\cyrsftsn }\IeC {\cyrn }\IeC {\cyro }\IeC {\cyrishrt } \IeC {\cyrs }\IeC {\cyre }\IeC {\cyrt }\IeC {\cyrk }\IeC {\cyri } \IeC {\cyrd }\IeC {\cyrl }\IeC {\cyrya } \IeC {\cyrr }\IeC {\cyra }\IeC {\cyrs }\IeC {\cyrch }\IeC {\cyre }\IeC {\cyrt }\IeC {\cyra } \IeC {\cyrg }\IeC {\cyrl }\IeC {\cyro }\IeC {\cyrb }\IeC {\cyra }\IeC {\cyrl }\IeC {\cyrsftsn }\IeC {\cyrn }\IeC {\cyro }\IeC {\cyrg }\IeC {\cyro } \IeC {\cyro }\IeC {\cyrs }\IeC {\cyrv }\IeC {\cyre }\IeC {\cyrshch }\IeC {\cyre }\IeC {\cyrn }\IeC {\cyri }\IeC {\cyrya }}}{7}}
\newlabel{fig:Mcubes2}{{12}{7}}
\@writefile{lof}{\contentsline {figure}{\numberline {13.}{\ignorespaces \IeC {\CYRP }\IeC {\cyrr }\IeC {\cyri }\IeC {\cyrm }\IeC {\cyre }\IeC {\cyrr }\IeC {\cyrery } \IeC {\cyrk }\IeC {\cyro }\IeC {\cyrn }\IeC {\cyrf }\IeC {\cyri }\IeC {\cyrg }\IeC {\cyru }\IeC {\cyrr }\IeC {\cyra }\IeC {\cyrc }\IeC {\cyri }\IeC {\cyrishrt } \IeC {\cyrp }\IeC {\cyro }\IeC {\cyrl }\IeC {\cyri }\IeC {\cyrg }\IeC {\cyro }\IeC {\cyrn }\IeC {\cyro }\IeC {\cyrv }}}{8}}
\newlabel{fig:Mcubes3}{{13}{8}}
\@writefile{toc}{\contentsline {subsection}{\numberline {2.4.\relax }\IeC {\CYRM }\IeC {\cyro }\IeC {\cyrd }\IeC {\cyre }\IeC {\cyrl }\IeC {\cyrsftsn } \IeC {\cyro }\IeC {\cyrs }\IeC {\cyrv }\IeC {\cyre }\IeC {\cyrshch }\IeC {\cyre }\IeC {\cyrn }\IeC {\cyri }\IeC {\cyrya }}{8}}
\@writefile{toc}{\contentsline {subsection}{\numberline {2.5.\relax }\IeC {\CYRV }\IeC {\cyrery }\IeC {\cyrch }\IeC {\cyri }\IeC {\cyrs }\IeC {\cyrl }\IeC {\cyre }\IeC {\cyrn }\IeC {\cyri }\IeC {\cyre } \IeC {\cyrn }\IeC {\cyro }\IeC {\cyrr }\IeC {\cyrm }\IeC {\cyra }\IeC {\cyrl }\IeC {\cyri }}{8}}
\@writefile{toc}{\contentsline {subsection}{\numberline {2.6.\relax }\IeC {\CYRR }\IeC {\cyra }\IeC {\cyrs }\IeC {\cyrch }\IeC {\cyre }\IeC {\cyrt } \IeC {\cyrt }\IeC {\cyre }\IeC {\cyrn }\IeC {\cyre }\IeC {\cyrishrt }}{9}}
\@writefile{toc}{\contentsline {subsubsection}{\numberline {2.6.1.\relax }\IeC {\CYRV }\IeC {\cyrv }\IeC {\cyre }\IeC {\cyrd }\IeC {\cyre }\IeC {\cyrn }\IeC {\cyri }\IeC {\cyre }}{9}}
\@writefile{toc}{\contentsline {subsubsection}{\numberline {2.6.2.\relax }\IeC {\CYRR }\IeC {\cyre }\IeC {\cyrz }\IeC {\cyrk }\IeC {\cyri }\IeC {\cyre } \IeC {\cyrt }\IeC {\cyre }\IeC {\cyrn }\IeC {\cyri }}{9}}
\@writefile{loa}{\contentsline {algorithm}{\numberline {10}{\ignorespaces HardShadows}}{9}}
\newlabel{HardShadows}{{10}{9}}
\@writefile{lof}{\contentsline {figure}{\numberline {14.}{\ignorespaces \IeC {\CYRR }\IeC {\cyre }\IeC {\cyrz }\IeC {\cyru }\IeC {\cyrl }\IeC {\cyrsftsn }\IeC {\cyrt }\IeC {\cyra }\IeC {\cyrt } \IeC {\cyrr }\IeC {\cyra }\IeC {\cyrb }\IeC {\cyro }\IeC {\cyrt }\IeC {\cyrery } \IeC {\cyrp }\IeC {\cyrr }\IeC {\cyro }\IeC {\cyrc }\IeC {\cyre }\IeC {\cyrd }\IeC {\cyru }\IeC {\cyrr }\IeC {\cyrery } HardShadows}}{9}}
\newlabel{fig:HardShadows}{{14}{9}}
\@writefile{toc}{\contentsline {subsubsection}{\numberline {2.6.3.\relax }\IeC {\CYRM }\IeC {\cyrya }\IeC {\cyrg }\IeC {\cyrk }\IeC {\cyri }\IeC {\cyre } \IeC {\cyrt }\IeC {\cyre }\IeC {\cyrn }\IeC {\cyri }}{9}}
\@writefile{loa}{\contentsline {algorithm}{\numberline {11}{\ignorespaces SoftShadows}}{10}}
\newlabel{SoftShadows}{{11}{10}}
\@writefile{lof}{\contentsline {figure}{\numberline {15.}{\ignorespaces \IeC {\CYRR }\IeC {\cyre }\IeC {\cyrz }\IeC {\cyru }\IeC {\cyrl }\IeC {\cyrsftsn }\IeC {\cyrt }\IeC {\cyra }\IeC {\cyrt } \IeC {\cyrr }\IeC {\cyra }\IeC {\cyrb }\IeC {\cyro }\IeC {\cyrt }\IeC {\cyrery } \IeC {\cyrp }\IeC {\cyrr }\IeC {\cyro }\IeC {\cyrc }\IeC {\cyre }\IeC {\cyrd }\IeC {\cyru }\IeC {\cyrr }\IeC {\cyrery } SoftShadows}}{10}}
\newlabel{fig:HardShadows}{{15}{10}}
\@writefile{lof}{\contentsline {figure}{\numberline {16.}{\ignorespaces \IeC {\CYRR }\IeC {\cyre }\IeC {\cyrz }\IeC {\cyru }\IeC {\cyrl }\IeC {\cyrsftsn }\IeC {\cyrt }\IeC {\cyra }\IeC {\cyrt } \IeC {\cyrr }\IeC {\cyra }\IeC {\cyrb }\IeC {\cyro }\IeC {\cyrt }\IeC {\cyrery } \IeC {\cyrp }\IeC {\cyrr }\IeC {\cyro }\IeC {\cyrc }\IeC {\cyre }\IeC {\cyrd }\IeC {\cyru }\IeC {\cyrr }\IeC {\cyrery } SoftShadows}}{10}}
\newlabel{fig:HardShadows}{{16}{10}}
\@writefile{toc}{\contentsline {subsection}{\numberline {2.7.\relax }Ambient occlusion}{10}}
\@writefile{lof}{\contentsline {figure}{\numberline {17.}{\ignorespaces \IeC {\CYRO }\IeC {\cyrt }\IeC {\cyrs }\IeC {\cyru }\IeC {\cyrt }\IeC {\cyrs }\IeC {\cyrt }\IeC {\cyrv }\IeC {\cyri }\IeC {\cyre } \IeC {\cyrz }\IeC {\cyra }\IeC {\cyrt }\IeC {\cyre }\IeC {\cyrn }\IeC {\cyre }\IeC {\cyrn }\IeC {\cyri }\IeC {\cyrya } \IeC {\cyro }\IeC {\cyrt } \IeC {\cyrd }\IeC {\cyrr }\IeC {\cyru }\IeC {\cyrg }\IeC {\cyri }\IeC {\cyrh } \IeC {\cyrp }\IeC {\cyro }\IeC {\cyrv }\IeC {\cyre }\IeC {\cyrr }\IeC {\cyrh }\IeC {\cyrn }\IeC {\cyro }\IeC {\cyrs }\IeC {\cyrt }\IeC {\cyre }\IeC {\cyrishrt }}}{11}}
\newlabel{fig:AONoOcc}{{17}{11}}
\@writefile{lof}{\contentsline {figure}{\numberline {18.}{\ignorespaces \IeC {\CYRZ }\IeC {\cyra }\IeC {\cyrt }\IeC {\cyre }\IeC {\cyrn }\IeC {\cyre }\IeC {\cyrn }\IeC {\cyri }\IeC {\cyre }, \IeC {\cyrv }\IeC {\cyrery }\IeC {\cyrz }\IeC {\cyrery }\IeC {\cyrv }\IeC {\cyra }\IeC {\cyre }\IeC {\cyrm }\IeC {\cyro }\IeC {\cyre } \IeC {\cyrk }\IeC {\cyrr }\IeC {\cyra }\IeC {\cyrs }\IeC {\cyrn }\IeC {\cyro }\IeC {\cyrishrt } \IeC {\cyrp }\IeC {\cyro }\IeC {\cyrv }\IeC {\cyre }\IeC {\cyrr }\IeC {\cyrh }\IeC {\cyrn }\IeC {\cyro }\IeC {\cyrs }\IeC {\cyrt }\IeC {\cyrsftsn }\IeC {\cyryu }}}{11}}
\newlabel{fig:AOOccOther}{{18}{11}}
\@writefile{lof}{\contentsline {figure}{\numberline {19.}{\ignorespaces \IeC {\CYRZ }\IeC {\cyra }\IeC {\cyrt }\IeC {\cyre }\IeC {\cyrn }\IeC {\cyre }\IeC {\cyrn }\IeC {\cyri }\IeC {\cyre } \IeC {\cyro }\IeC {\cyrt } \IeC {\cyri }\IeC {\cyrs }\IeC {\cyrh }\IeC {\cyro }\IeC {\cyrd }\IeC {\cyrn }\IeC {\cyro }\IeC {\cyrishrt } \IeC {\cyrp }\IeC {\cyro }\IeC {\cyrv }\IeC {\cyre }\IeC {\cyrr }\IeC {\cyrh }\IeC {\cyrn }\IeC {\cyro }\IeC {\cyrs }\IeC {\cyrt }\IeC {\cyri }}}{11}}
\newlabel{fig:AOSelfOcc}{{19}{11}}
\@writefile{loa}{\contentsline {algorithm}{\numberline {12}{\ignorespaces AmbientOcclusion}}{12}}
\newlabel{AmbientOcclusion}{{12}{12}}
\@writefile{lof}{\contentsline {figure}{\numberline {20.}{\ignorespaces \IeC {\CYRI }\IeC {\cyrl }\IeC {\cyrl }\IeC {\cyryu }\IeC {\cyrs }\IeC {\cyrt }\IeC {\cyrr }\IeC {\cyra }\IeC {\cyrc }\IeC {\cyri }\IeC {\cyrya } \IeC {\cyrk } \IeC {\cyrp }\IeC {\cyrr }\IeC {\cyro }\IeC {\cyrc }\IeC {\cyre }\IeC {\cyrd }\IeC {\cyru }\IeC {\cyrr }\IeC {\cyre } AmbientOcclusion}}{12}}
\newlabel{fig:AOResult1}{{20}{12}}
\@writefile{lof}{\contentsline {figure}{\numberline {21.}{\ignorespaces \IeC {\CYRI }\IeC {\cyrl }\IeC {\cyrl }\IeC {\cyryu }\IeC {\cyrs }\IeC {\cyrt }\IeC {\cyrr }\IeC {\cyra }\IeC {\cyrc }\IeC {\cyri }\IeC {\cyrya } \IeC {\cyrk } \IeC {\cyrp }\IeC {\cyrr }\IeC {\cyro }\IeC {\cyrc }\IeC {\cyre }\IeC {\cyrd }\IeC {\cyru }\IeC {\cyrr }\IeC {\cyre } AmbientOcclusion}}{13}}
\newlabel{fig:AOResult2}{{21}{13}}
\@writefile{toc}{\contentsline {section}{\numberline {3.\relax }Volume effects}{13}}
\@writefile{lof}{\contentsline {figure}{\numberline {22.}{\ignorespaces \IeC {\CYRV }\IeC {\cyri }\IeC {\cyrz }\IeC {\cyru }\IeC {\cyra }\IeC {\cyrl }\IeC {\cyri }\IeC {\cyrz }\IeC {\cyra }\IeC {\cyrc }\IeC {\cyri }\IeC {\cyrya } \IeC {\cyrd }\IeC {\cyrery }\IeC {\cyrm }\IeC {\cyra }}}{14}}
\newlabel{fig:AOResult2}{{22}{14}}
\@writefile{toc}{\contentsline {section}{\numberline {4.\relax }\IeC {\CYRO }\IeC {\cyrp }\IeC {\cyrt }\IeC {\cyri }\IeC {\cyrm }\IeC {\cyri }\IeC {\cyrz }\IeC {\cyra }\IeC {\cyrc }\IeC {\cyri }\IeC {\cyri }}{14}}
\@writefile{toc}{\contentsline {subsection}{\numberline {4.1.\relax }\IeC {\CYRI }\IeC {\cyrs }\IeC {\cyrp }\IeC {\cyro }\IeC {\cyrl }\IeC {\cyrsftsn }\IeC {\cyrz }\IeC {\cyro }\IeC {\cyrv }\IeC {\cyra }\IeC {\cyrn }\IeC {\cyri }\IeC {\cyre } \IeC {\cyro }\IeC {\cyrg }\IeC {\cyrr }\IeC {\cyra }\IeC {\cyrn }\IeC {\cyri }\IeC {\cyrch }\IeC {\cyri }\IeC {\cyrv }\IeC {\cyra }\IeC {\cyryu }\IeC {\cyrshch }\IeC {\cyri }\IeC {\cyrh } \IeC {\cyro }\IeC {\cyrb }\IeC {\cyrhrdsn }\IeC {\cyre }\IeC {\cyrm }\IeC {\cyro }\IeC {\cyrv }}{14}}
\@writefile{toc}{\contentsline {subsection}{\numberline {4.2.\relax }\IeC {\CYRI }\IeC {\cyrs }\IeC {\cyrp }\IeC {\cyro }\IeC {\cyrl }\IeC {\cyrsftsn }\IeC {\cyrz }\IeC {\cyro }\IeC {\cyrv }\IeC {\cyra }\IeC {\cyrn }\IeC {\cyri }\IeC {\cyre } stencil buffer}{14}}
\@writefile{toc}{\contentsline {subsection}{\numberline {4.3.\relax }\IeC {\CYRR }\IeC {\cyre }\IeC {\cyrz }\IeC {\cyru }\IeC {\cyrl }\IeC {\cyrsftsn }\IeC {\cyrt }\IeC {\cyra }\IeC {\cyrt }\IeC {\cyrery }}{14}}
\@writefile{toc}{\contentsline {section}{\numberline {5.\relax }\IeC {\CYRZ }\IeC {\cyra }\IeC {\cyrk }\IeC {\cyrl }\IeC {\cyryu }\IeC {\cyrch }\IeC {\cyre }\IeC {\cyrn }\IeC {\cyri }\IeC {\cyre }}{14}}
